Final Project: Analyzing U.S. Election County Data
…
Data Collection

The data used for this project can be found online at this kaggle repository. At this repository, we find two csv files, one on each U.S. countys demographic characteristics and another on its voting behavior.

library(tidyverse)
path <- "./county_facts.csv"
county_data <- read_csv(path)
county_data

## # A tibble: 3,195 x 54
##     fips area_name      state_abbreviation PST045214 PST040210 PST120214
##    <int> <chr>          <chr>                  <int>     <int>     <dbl>
##  1     0 United States  <NA>               318857056 308758105     3.30 
##  2  1000 Alabama        <NA>                 4849377   4780127     1.40 
##  3  1001 Autauga County AL                     55395     54571     1.50 
##  4  1003 Baldwin County AL                    200111    182265     9.80 
##  5  1005 Barbour County AL                     26887     27457    -2.10 
##  6  1007 Bibb County    AL                     22506     22919    -1.80 
##  7  1009 Blount County  AL                     57719     57322     0.700
##  8  1011 Bullock County AL                     10764     10915    -1.40 
##  9  1013 Butler County  AL                     20296     20946    -3.10 
## 10  1015 Calhoun County AL                    115916    118586    -2.30 
## # ... with 3,185 more rows, and 48 more variables: POP010210 <int>,
## #   AGE135214 <dbl>, AGE295214 <dbl>, AGE775214 <dbl>, SEX255214 <dbl>,
## #   RHI125214 <dbl>, RHI225214 <dbl>, RHI325214 <dbl>, RHI425214 <dbl>,
## #   RHI525214 <dbl>, RHI625214 <dbl>, RHI725214 <dbl>, RHI825214 <dbl>,
## #   POP715213 <dbl>, POP645213 <dbl>, POP815213 <dbl>, EDU635213 <dbl>,
## #   EDU685213 <dbl>, VET605213 <int>, LFE305213 <dbl>, HSG010214 <int>,
## #   HSG445213 <dbl>, HSG096213 <dbl>, HSG495213 <int>, HSD410213 <int>,
## #   HSD310213 <dbl>, INC910213 <int>, INC110213 <int>, PVY020213 <dbl>,
## #   BZA010213 <int>, BZA110213 <int>, BZA115213 <dbl>, NES010213 <int>,
## #   SBO001207 <int>, SBO315207 <dbl>, SBO115207 <dbl>, SBO215207 <dbl>,
## #   SBO515207 <dbl>, SBO415207 <dbl>, SBO015207 <dbl>, MAN450207 <dbl>,
## #   WTN220207 <dbl>, RTN130207 <dbl>, RTN131207 <int>, AFN120207 <int>,
## #   BPS030214 <int>, LND110210 <dbl>, POP060210 <dbl>

library(tidyverse)
path <- "./US_County_Level_Presidential_Results_12-16.csv"
election_data <- read_csv(path)
election_data

## # A tibble: 3,141 x 21
##       X1 combined_fips votes_dem_2016 votes_gop_2016 total_votes_2016
##    <int>         <int>          <dbl>          <dbl>            <dbl>
##  1     0          2013          93003         130413           246588
##  2     1          2016          93003         130413           246588
##  3     2          2020          93003         130413           246588
##  4     3          2050          93003         130413           246588
##  5     4          2060          93003         130413           246588
##  6     5          2068          93003         130413           246588
##  7     6          2070          93003         130413           246588
##  8     7          2090          93003         130413           246588
##  9     8          2100          93003         130413           246588
## 10     9          2105          93003         130413           246588
## # ... with 3,131 more rows, and 16 more variables: per_dem_2016 <dbl>,
## #   per_gop_2016 <dbl>, diff_2016 <int>, per_point_diff_2016 <dbl>,
## #   state_abbr <chr>, county_name <chr>, FIPS <chr>,
## #   total_votes_2012 <dbl>, votes_dem_2012 <dbl>, votes_gop_2012 <dbl>,
## #   county_fips <chr>, state_fips <chr>, per_dem_2012 <dbl>,
## #   per_gop_2012 <dbl>, diff_2012 <dbl>, per_point_diff_2012 <dbl>
